Name,Count
Aaron Cooper,2
Alex Palmer,2
Allen Fisher,2
Angel Gonzalez,2
Ashley Butler,2
Brandon Byrd,2
Brandon Turner,3
Bryden Wilson,2
Chen,3
Collin Grant,2
Cortney Young,2
Dave Richardson,4
David Martinez,6
David Osborn,2
Duy Tran,2
Eduardo Garcia,2
Emily Hu,2
Enrique Rodriguez,2
Ethan Fudge,2
G. Baum,2
Gary Miller,4
James Grant,3
James Henderson,3
Joanne Barnes,2
Joey Reid,2
Jonathan Rodgers,3
Josh Banks,2
Joshua Yu,2
Julio Sanchez,2
Kim Moser,2
Kim Tran,3
L. Sample,2
Larry Williams,2
Martin Nguyen,2
Minh Duc Nguyen,2
Mason Evans,2
Matt Ward,3
Mike Conley,2
Morgan Turner,2
Paulo Santos,2
Robert Doll,2
Robert Morrison,2
Ruben Hernandez,2
Sam Cox,2
Sarah Brenner,2
Sarah Vance,2
Seung Lee,2
Steve Johnson,4
Thanh Tam Nguyen,2
Tim Parker,3
Tom Gee,2
